<?xml version="1.0" encoding="UTF-8" standalone="no"?>
<!-- Created with Inkscape (http://www.inkscape.org/) -->

<svg
   xmlns:dc="http://purl.org/dc/elements/1.1/"
   xmlns:cc="http://creativecommons.org/ns#"
   xmlns:rdf="http://www.w3.org/1999/02/22-rdf-syntax-ns#"
   xmlns:svg="http://www.w3.org/2000/svg"
   xmlns="http://www.w3.org/2000/svg"
   xmlns:sodipodi="http://sodipodi.sourceforge.net/DTD/sodipodi-0.dtd"
   xmlns:inkscape="http://www.inkscape.org/namespaces/inkscape"
   id="svg2"
   version="1.1"
   inkscape:version="0.48.4 r9939"
   width="244"
   height="226"
   xml:space="preserve"
   sodipodi:docname="logo.svg"
   style="enable-background:new"><metadata
     id="metadata8"><rdf:RDF><cc:Work
         rdf:about=""><dc:format>image/svg+xml</dc:format><dc:type
           rdf:resource="http://purl.org/dc/dcmitype/StillImage" /><dc:title></dc:title></cc:Work></rdf:RDF></metadata><defs
     id="defs6"><path
       sodipodi:type="star"
       id="hexagon_def"
       sodipodi:sides="6"
       sodipodi:cx="82.15"
       sodipodi:cy="133.857"
       sodipodi:r1="90.066643"
       sodipodi:r2="78"
       sodipodi:arg1="-0.52359878"
       sodipodi:arg2="0"
       inkscape:flatsided="true"
       inkscape:rounded="0"
       inkscape:randomized="0"
       d="m 160.15,88.823673 0,90.066647 -77.999998,45.03332 -78.0000009,-45.03332 -4e-7,-90.066646 78.0000003,-45.033322 z" /><path
       d="m 105.03125,1.25 c -3.78279,0 -7.120218,2.6729346 -7.90625,6.375 l 0,0.09375 0,0.0625 L 85.90625,71.625 c -0.325766,1.84782 -1.874062,3.15625 -3.75,3.15625 -1.822592,0 -3.367954,-1.243697 -3.75,-3.03125 L 67.5,20.71875 c -0.786565,-3.700901 -4.090472,-6.40625 -7.875,-6.40625 -4.092793,0 -7.603473,3.147731 -8.03125,7.21875 l -11.3125,108.03125 -0.625,5.84375 C 38.423069,147.13973 34.203355,155.08603 28.25,160.25 c -5.953355,5.16397 -13.896868,7.6875 -23.1875,7.6875 l -0.8125,0 0,8 0.8125,0 c 10.765565,0 20.788631,-3.02158 28.4375,-9.65625 4.405877,-3.82168 7.926856,-8.80317 10.40625,-14.875 6.674062,14.45982 21.320822,24.53125 38.25,24.53125 15.358801,0 28.81363,-8.2895 36.15625,-20.625 l 1.21875,13.28125 c 0.37466,4.11795 3.89694,7.34375 8.03125,7.34375 4.22857,0 7.80965,-3.37974 8.0625,-7.59375 0.001,-0.0208 -0.001,-0.0417 0,-0.0625 l 4.40625,-68.40625 0,-0.03125 c 0.004,-0.07212 -0.0111,-0.0625 0.0625,-0.0625 0.0828,0 0.0625,-0.01969 0.0625,0.0625 l 0,68.09375 c 0,4.33102 3.66882,8 8,8 l 11.90625,0 0,-8 -11.90625,0 0,-68.09375 c 0,-4.40531 -3.65778,-8.0625 -8.0625,-8.0625 -4.23842,0 -7.82524,3.365314 -8.0625,7.59375 -5.9e-4,0.01049 5.5e-4,0.02075 0,0.03125 l -4.40625,68.4375 0,0.0312 c -0.004,0.0724 0.0104,0.0625 -0.0625,0.0625 -0.0669,0 -0.0564,0.004 -0.0625,-0.0625 L 113.0625,8.59375 C 112.68766,4.476016 109.16619,1.25 105.03125,1.25 z m -0.0625,8 c 0.008,-0.00932 0.0357,0 0.0625,0 0.0663,0 0.0566,-0.00227 0.0625,0.0625 L 113.875,106.25 C 106.15749,97.385999 94.803557,91.78125 82.15625,91.78125 c -12.454729,0 -23.6579,5.431546 -31.375,14.0625 L 59.5625,22.375 c 0.0067,-0.06398 -0.003,-0.0625 0.0625,-0.0625 0.05147,0 0.05206,0.0134 0.0625,0.0625 l 10.90625,51.0625 c 1.159602,5.425647 6.008092,9.34375 11.5625,9.34375 5.706062,0 10.634266,-4.16157 11.625,-9.78125 l 11.1875,-63.6875 c 0.005,-0.025218 -0.008,-0.053179 0,-0.0625 z m -22.8125,90.53125 c 18.86869,0 34.0625,15.19381 34.0625,34.0625 0,18.86869 -15.19381,34.09375 -34.0625,34.09375 -18.86869,0 -34.09375,-15.22506 -34.09375,-34.09375 0,-18.86869 15.22506,-34.0625 34.09375,-34.0625 z"
       id="MOL_def"
       inkscape:connector-curvature="0" /></defs><sodipodi:namedview
     pagecolor="#ffffff"
     bordercolor="#666666"
     borderopacity="1"
     objecttolerance="10"
     gridtolerance="10"
     guidetolerance="10"
     inkscape:pageopacity="0"
     inkscape:pageshadow="2"
     inkscape:window-width="1086"
     inkscape:window-height="679"
     id="namedview4"
     showgrid="false"
     showguides="true"
     inkscape:guide-bbox="true"
     inkscape:zoom="2.0000001"
     inkscape:cx="120.39279"
     inkscape:cy="117.20624"
     inkscape:window-x="0"
     inkscape:window-y="0"
     inkscape:window-maximized="0"
     inkscape:current-layer="svg2"
     inkscape:object-paths="true"
     inkscape:snap-to-guides="true"
     inkscape:snap-smooth-nodes="true"
     inkscape:snap-object-midpoints="false"
     fit-margin-top="2"
     fit-margin-left="1"
     fit-margin-bottom="2"
     fit-margin-right="1"
     inkscape:snap-page="false"
     inkscape:object-nodes="true"
     inkscape:snap-global="true" /><g
     id="logo"><g
       id="MOL"
       style="fill:#000000;fill-opacity:1;stroke:none"><path
         inkscape:connector-curvature="0"
         id="MOL_1"
         d="m 82.15625,43.78125 -8.65625,5 4.90625,22.96875 c 0.382046,1.787553 1.927408,3.03125 3.75,3.03125 1.875938,0 3.424234,-1.30843 3.75,-3.15625 L 90,48.3125 82.15625,43.78125 z M 97.375,52.5625 93.78125,73 c -0.990734,5.61968 -5.918938,9.78125 -11.625,9.78125 -5.554408,0 -10.402898,-3.918103 -11.5625,-9.34375 l -4.375,-20.46875 -10.5,6.09375 -4.9375,46.78125 c 7.7171,-8.630954 18.920271,-14.0625 31.375,-14.0625 12.647307,0 24.00124,5.604749 31.71875,14.46875 L 109.65625,59.65625 97.375,52.5625 z M 47.15625,64 l -43,24.8125 0,79.125 0.90625,0 c 9.290632,0 17.234145,-2.52353 23.1875,-7.6875 5.953355,-5.16397 10.173069,-13.11027 11.40625,-24.84375 l 0.625,-5.84375 L 47.15625,64 z M 118.125,64.5625 127.5,167.875 c 0.006,0.0665 -0.004,0.0625 0.0625,0.0625 0.0729,0 0.0585,0.01 0.0625,-0.0625 l 0,-0.0312 4.40625,-68.4375 c 5.5e-4,-0.0105 -5.9e-4,-0.02076 0,-0.03125 0.23726,-4.228436 3.82408,-7.59375 8.0625,-7.59375 4.40472,0 8.0625,3.65719 8.0625,8.0625 l 0,68.09375 12,0 0,-79.125 -42.03125,-24.25 z M 82.15625,99.78125 c -18.86869,0 -34.09375,15.19381 -34.09375,34.0625 0,18.86869 15.22506,34.09375 34.09375,34.09375 18.86869,0 34.0625,-15.22506 34.0625,-34.09375 0,-18.86869 -15.19381,-34.0625 -34.0625,-34.0625 z m 57.875,0 c -0.006,0.0066 0.002,0.02644 0,0.0625 l 0,0.03125 -4.40625,68.40625 c -0.001,0.0208 0.001,0.0417 0,0.0625 -0.25285,4.21401 -3.83393,7.59375 -8.0625,7.59375 -4.13431,0 -7.65659,-3.2258 -8.03125,-7.34375 L 118.3125,155.3125 c -7.34262,12.3355 -20.797449,20.625 -36.15625,20.625 -16.929178,0 -31.575938,-10.07143 -38.25,-24.53125 -2.479394,6.07183 -6.000373,11.05332 -10.40625,14.875 -7.648869,6.63467 -17.671935,9.65625 -28.4375,9.65625 l -0.90625,0 0,2.9375 78,45.0625 78,-45.0625 0,-2.9375 -12,0 c -4.33118,0 -8,-3.66898 -8,-8 l 0,-68.09375 c 0,-0.08219 0.0203,-0.0625 -0.0625,-0.0625 -0.0368,0 -0.0566,-0.0066 -0.0625,0 z"
         style="fill:#000000;fill-opacity:1" /><path
         inkscape:connector-curvature="0"
         id="MOL_2"
         d="m 105.03125,1.25 c -3.78279,0 -7.120218,2.6729346 -7.90625,6.375 l 0,0.09375 0,0.0625 L 90,48.3125 l 7.375,4.25 7.59375,-43.25 c 0.005,-0.025218 -0.008,-0.053179 0,-0.0625 0.008,-0.00932 0.0357,0 0.0625,0 0.0663,0 0.0566,-0.00227 0.0625,0.0625 l 4.5625,50.34375 8.46875,4.90625 -5.0625,-55.96875 C 112.68766,4.476016 109.16619,1.25 105.03125,1.25 z M 59.625,14.3125 c -4.092793,0 -7.603473,3.147731 -8.03125,7.21875 L 47.15625,64 55.71875,59.0625 59.5625,22.375 c 0.0067,-0.06398 -0.003,-0.0625 0.0625,-0.0625 0.05147,0 0.05206,0.0134 0.0625,0.0625 l 6.53125,30.59375 7.28125,-4.1875 -6,-28.0625 C 66.713435,17.017849 63.409528,14.3125 59.625,14.3125 z"
         style="fill:#000000;fill-opacity:1;stroke:none" /></g><text
       transform="scale(0.70710677,1.4142136)"
       sodipodi:linespacing="125%"
       id="CAS"
       y="123.87601"
       x="231.08249"
       style="font-size:52px;font-style:normal;font-variant:normal;font-weight:bold;font-stretch:normal;text-align:start;line-height:125%;letter-spacing:0px;word-spacing:0px;writing-mode:lr-tb;text-anchor:start;fill:#000000;fill-opacity:1;stroke:none;font-family:Nimbus Sans L;-inkscape-font-specification:Nimbus Sans L Bold"
       xml:space="preserve"><tspan
         y="123.87601"
         x="231.08249"
         id="tspan3787"
         sodipodi:role="line">CAS</tspan></text>
</g></svg>
