%!PS-Adobe-2.0 EPSF-2.0
%%BoundingBox: 0 0 192 178
%%HiResBoundingBox: 0.000000 0.000000 192.000000 177.500000
%%EndComments
% EPSF created by ps2eps 1.68
%%BeginProlog
save
countdictstack
mark
newpath
/showpage {} def
/setpagedevice {pop} def
%%EndProlog
%%Page 1 1
/BGcolor {1 setgray} bind def
/FGcolor {0 setgray} bind def
/hexagon {
  newpath
  124.70  36.00 moveto
  124.70 108.00 lineto
   62.35 144.00 lineto
    0.00 108.00 lineto
    0.00  36.00 lineto
   62.35   0.00 lineto
  closepath
} def
/circle {
  newpath
  93.10 72.00 moveto
  62.35 72.00 30.75 0 359 arc
  closepath
} def
/line {
  newpath
  0 41.25 moveto
  0 73 31.75 270 354 arc
  44.38 160.44 3.25 174 12 arcn
  62.35 121.58 6.25 -168 -10 arc
  80.70 170.90 3.25 168 5.2 arcn
  98.73 44.50 3.25 -174.8 -3 arc
  108.12 99.50 3.25 177 0 arcn
  114.62 44.5 3.25 -180 -90 arc
  124.71 41.25 lineto
} def
/text {
  gsave
  129.71 38 moveto
  /Helvetica-Bold findfont 30 scalefont setfont
  1 2 scale
  (CAS) show
  grestore
} def
/logo {
  FGcolor
  hexagon fill
  6.5 setlinewidth
  line stroke
  BGcolor
  gsave
  hexagon clip
  circle stroke
  line stroke
  grestore
  -1 41.25 moveto 1 41.25 lineto stroke
  FGcolor
  text
} def
logo
showpage
%%Trailer
cleartomark
countdictstack
exch sub { end } repeat
restore
%%EOF
