%!PS-Adobe-2.0 EPSF
%%Title: /tmp/xfig-fig017100
%%Creator: fig2dev
%%CreationDate: Mon Jan  6 10:30:17 1997
%%For: teonwm@atle.teokem.lu.se (Nigel Moriarty)
%%BoundingBox: 0 0 172 274
%%Pages: 0
%%EndComments
/$F2psDict 200 dict def 
$F2psDict begin
$F2psDict /mtrx matrix put
/l {lineto} bind def
/m {moveto} bind def
/s {stroke} bind def
/n {newpath} bind def
/gs {gsave} bind def
/gr {grestore} bind def
/clp {closepath} bind def
/graycol {dup dup currentrgbcolor 4 -2 roll mul 4 -2 roll mul
4 -2 roll mul setrgbcolor} bind def
/col-1 {} def
/col0 {0 0 0 setrgbcolor} bind def
/col1 {0 0 1 setrgbcolor} bind def
/col2 {0 1 0 setrgbcolor} bind def
/col3 {0 1 1 setrgbcolor} bind def
/col4 {1 0 0 setrgbcolor} bind def
/col5 {1 0 1 setrgbcolor} bind def
/col6 {1 1 0 setrgbcolor} bind def
/col7 {1 1 1 setrgbcolor} bind def
	end
/$F2psBegin {$F2psDict begin /$F2psEnteredState save def} def
/$F2psEnd {$F2psEnteredState restore end} def
%%EndProlog

$F2psBegin
0 setlinecap 0 setlinejoin
-111.0 314.0 translate 0.675 -0.675 scale
2.000 setlinewidth
% Polyline
n 164 419 m 224 419 l gs col-1 s gr
% Polyline
n 164 374 m 224 374 l gs col-1 s gr
% Polyline
n 164 239 m 224 239 l gs col-1 s gr
% Polyline
n 164 104 m 224 104 l gs col-1 s gr
0.500 setlinewidth
% Polyline
n 164 329 m 224 329 l gs col-1 s gr
% Polyline
n 164 284 m 224 284 l gs col-1 s gr
/Times-Roman findfont 18.00 scalefont setfont
240 170 m 
gs 1 -1 scale (Virtual) col-1 show gr
/Times-Roman findfont 18.00 scalefont setfont
195 449 m 
gs 1 -1 scale (2) dup stringwidth pop 2 div neg 0 rmoveto  col-1 show gr
/Times-Roman findfont 18.00 scalefont setfont
195 404 m 
gs 1 -1 scale (2) dup stringwidth pop 2 div neg 0 rmoveto  col-1 show gr
/Times-Roman findfont 18.00 scalefont setfont
195 359 m 
gs 1 -1 scale (0-2) dup stringwidth pop 2 div neg 0 rmoveto  col-1 show gr
/Times-Roman findfont 18.00 scalefont setfont
195 314 m 
gs 1 -1 scale (0-2) dup stringwidth pop 2 div neg 0 rmoveto  col-1 show gr
2.000 setlinewidth
% Polyline
n 224 464 m 224 59 l  164 59 l  164 464 l 
 clp gs col-1 s gr
/Times-Roman findfont 18.00 scalefont setfont
195 269 m 
gs 1 -1 scale (0-2) dup stringwidth pop 2 div neg 0 rmoveto  col-1 show gr
/Times-Roman findfont 18.00 scalefont setfont
240 90 m 
gs 1 -1 scale (DELETED) col-1 show gr
/Times-Roman findfont 18.00 scalefont setfont
195 170 m 
gs 1 -1 scale (0) dup stringwidth pop 2 div neg 0 rmoveto  col-1 show gr
/Times-Roman findfont 18.00 scalefont setfont
195 89 m 
gs 1 -1 scale (-) dup stringwidth pop 2 div neg 0 rmoveto  col-1 show gr
/Times-Roman findfont 16.00 scalefont setfont
240 305 m 
gs 1 -1 scale (RAS2 orbitals of) col-1 show gr
/Times-Roman findfont 16.00 scalefont setfont
240 325 m 
gs 1 -1 scale (arbitary occupation) col-1 show gr
/Times-Roman findfont 16.00 scalefont setfont
240 280 m 
gs 1 -1 scale (a max. number of electrons) col-1 show gr
/Times-Roman findfont 16.00 scalefont setfont
240 260 m 
gs 1 -1 scale (RAS3 orbitals containing) col-1 show gr
/Times-Roman findfont 16.00 scalefont setfont
240 350 m 
gs 1 -1 scale (RAS1 orbitals containing) col-1 show gr
/Times-Roman findfont 16.00 scalefont setfont
240 370 m 
gs 1 -1 scale (a max. number of holes) col-1 show gr
/Times-Roman findfont 18.00 scalefont setfont
240 450 m 
gs 1 -1 scale (FROZEN) col-1 show gr
/Times-Roman findfont 18.00 scalefont setfont
240 405 m 
gs 1 -1 scale (INACTIVE) col-1 show gr
$F2psEnd
